…
\#\#Check in echo360.

## how can I bootstrap

Write a function to draw a bootstrap sample based on a dataframe.

``` r
sim_df_nonconst %>% 
  sample_frac(size = 1, replace = TRUE) %>%  #This is a wrapper around sample.int() to make it easy to 
  arrange(x)
```

    ## # A tibble: 250 x 3
    ##         x  error       y
    ##     <dbl>  <dbl>   <dbl>
    ##  1 -1.89   1.62  -2.04  
    ##  2 -1.29   1.40  -0.454 
    ##  3 -0.989 -1.97  -2.93  
    ##  4 -0.989 -1.97  -2.93  
    ##  5 -0.914 -0.908 -1.65  
    ##  6 -0.914 -0.908 -1.65  
    ##  7 -0.914 -0.908 -1.65  
    ##  8 -0.733  0.447  0.248 
    ##  9 -0.733  0.447  0.248 
    ## 10 -0.606 -0.106  0.0774
    ## # … with 240 more rows
…
