Cross Validation
…
Training and testing

training_df = sample_n(nonlin_df,80)
sample_frac(nonlin_df,0.8)  # also workd as the last code.

## # A tibble: 80 x 3
##       id      x      y
##    <int>  <dbl>  <dbl>
##  1    21 0.939  -2.99 
##  2    28 0.0103  0.354
##  3    35 0.322   1.19 
##  4    52 0.363   1.06 
##  5    43 0.0933  0.632
##  6    98 0.115   0.986
##  7    48 0.807  -1.51 
##  8     9 0.229   0.438
##  9    78 0.500   0.714
## 10    25 0.792  -1.17 
## #  with 70 more rows
…
always choose fit the test dataset better model.

DO this all using modelr

preforms the training / testing split multiple times, a stores the datasets using list columns.

cv_df =  
  crossv_mc(nonlin_df, 100)  # n(100)  is Number of test-training pairs to generate (an integer).
# nest data 

one note about resample

cv_df %>% pull(train) %>% .[[1]] %>% as.tibble()

## # A tibble: 79 x 3
##       id      x      y
##    <int>  <dbl>  <dbl>
##  1     1 0.946  -3.92 
##  2     2 0.801  -1.31 
##  3     3 0.855  -2.16 
##  4     4 0.478   1.09 
##  5     6 0.0929  0.609
##  6     7 0.254   1.03 
##  7     8 0.0419  0.435
##  8     9 0.229   0.438
##  9    10 0.663  -0.704
## 10    11 0.765  -1.42 
## #  with 69 more rows
…
